%!PS-Adobe-3.0 EPSF-3.0
%%Creator: GIMP PostScript file plugin V 1,17 by Peter Kirchgessner
%%Title: Muffet.eps
%%CreationDate: Fri May 13 15:04:46 2016
%%DocumentData: Clean7Bit
%%LanguageLevel: 2
%%Pages: 1
%%BoundingBox: 14 14 79 56
%%EndComments
%%BeginProlog
% Use own dictionary to avoid conflicts
10 dict begin
%%EndProlog
%%Page: 1 1
% Translate for offset
14.173228346456694 14.173228346456694 translate
% Translate to begin of first scanline
0 40.985875984251969 translate
63.97795275590552 -40.985875984251969 scale
% Image geometry
64 41 8
% Transformation matrix
[ 64 0 0 41 0 0 ]
% Strings to hold RGB-samples per scanline
/rstr 64 string def
/gstr 64 string def
/bstr 64 string def
{currentfile /ASCII85Decode filter /RunLengthDecode filter rstr readstring pop}
{currentfile /ASCII85Decode filter /RunLengthDecode filter gstr readstring pop}
{currentfile /ASCII85Decode filter /RunLengthDecode filter bstr readstring pop}
true 3
%%BeginData:         4508 ASCII Bytes
colorimage
o`+jij8]&Xo`'F~>
o`+jij8]&Xo`'F~>
o`+jij8]&Xo`'F~>
o`"sms8W&ukPtM]s8N'!o`'F~>
o`"sms8W&ukPtM]s8N'!o`'F~>
o`"sms8W&ukPtM]s8N'!o`'F~>
!<;forr2rurVultl2Ub`rVlitrr;`n!<7Q~>
!<;forr2rurVultl2Ub`rVlitrr;`n!<7Q~>
!<;forr2rurVultl2Ub`rVlitrr;`n!<7Q~>
rrDoqrrE*!!!)rsrrE*!mf<CfrrDus"9AK%!!)lqrr@Q~>
rrDoqrrE*!!!)rsrrE*!mf<CfrrDus"9AK%!!)lqrr@Q~>
rrDoqrrE*!!!)rsrrE*!mf<CfrrDus"9AK%!!)lqrr@Q~>
!!)for;c`pr;cBfr;c`pr;cWm!!%N~>
!!)for;c`pr;cBfr;c`pr;cWm!!%N~>
!!)for;c`pr;cBfr;c`pr;cWm!!%N~>
!!)`mrW)lr!!)?b!!)rsrW)Zl!!%N~>
!!)`mrW)lr!!)?b!!)rsrW)Zl!!%N~>
!!)`mrW)lr!!)?b!!)rsrW)Zl!!%N~>
!!)Zk!!)ut!!)9`!!)ut!!)Zk!!%N~>
!!)Zk!!)ut!!)9`!!)ut!!)Zk!!%N~>
!!)Zk!!)ut!!)9`!!)ut!!)Zk!!%N~>
!!)Zk!!*#u!!)3^!!*#u!!)Zk!!%N~>
!!)Zk!!*#u!!)3^!!*#u!!)Zk!!%N~>
!!)Zk!!*#u!!)3^!!*#u!!)Zk!!%N~>
rrD`l!s&B$!:'Ra!<)p"!<<'!p&G$lJ,~>
rrD`l!s&B$!:'Ra!<)p"!<<'!p&G$lJ,~>
rrD`l!s&B$!:'Ra!<)p"!<<'!p&G$lJ,~>
!WN/os8N*!rr<&ms7lZms8N)trr`?%rr<&nrrE-"J,~>
!WN/os8N*!rr<&ms7lZms8N)trr`?%rr<&nrrE-"J,~>
!WN/os8N*!rr<&ms7lZms8N)trr`?%rr<&nrrE-"J,~>
!ri6#qZ$Qqrr2rup](6nq>^Hps8N-#rrDus!!*#urrDoqrr<'!J,~>
!ri6#qZ$Qqrr2rup](6nq>^Hps8N-#rrDus!!*#urrDoqrr<'!J,~>
!ri6#qZ$Qqrr2rup](6nq>^Hps8N-#rrDus!!*#urrDoqrr<'!J,~>
s8W#trr2rur;Q`sq>^Hpp&G$lrr2rurVlitr;Q`srr;oss8RT~>
s8W#trr2rur;Q`sq>^Hpp&G$lrr2rurVlitr;Q`srr;oss8RT~>
s8W#trr2rur;Q`sq>^Hpp&G$lrr2rurVlitr;Q`srr;oss8RT~>
rr;uurVlitrVlitq>UEpqZ$Qqp\t3nr;Q`srVlitr;Zcss8RT~>
rr;uurVlitrVlitq>UEpqZ$Qqp\t3nr;Q`srVlitr;Zcss8RT~>
rr;uurVlitrVlitq>UEpqZ$Qqp\t3nr;Q`srVlitr;Zcss8RT~>
rr2rur;Q`srVlitqYpNqqZ$Koq#:<or;Q`srVlitqu6]ts8RT~>
rr2rur;Q`srVlitqYpNqqZ$Koq#:<or;Q`srVlitqu6]ts8RT~>
rr2rur;Q`srVlitqYpNqqZ$Koq#:<or;Q`srVlitqu6]ts8RT~>
rr;uur;Qm"s8N'!qu6Wrq>^Bnq>UEpqu?Zrs8N'!qu?Zrs8RT~>
rr;uur;Qm"s8N'!qu6Wrq>^Bnq>UEpqu?Zrs8N'!qu?Zrs8RT~>
rr;uur;Qm"s8N'!qu6Wrq>^Bnq>UEpqu?Zrs8N'!qu?Zrs8RT~>
rVultrVls"rr<&rrr<&us8E#ts8;rss8E#urr<&qs8N'"rrDusrrE&uJ,~>
rVultrVls"rr<&rrr<&us8E#ts8;rss8E#urr<&qs8N'"rrDusrrE&uJ,~>
rVultrVls"rr<&rrr<&us8E#ts8;rss8E#urr<&qs8N'"rrDusrrE&uJ,~>
r;ZcsrVuisqu6Wrrr;oss8W#ts8W#trr2ruqu?TprVultrVqB~>
r;ZcsrVuisqu6Wrrr;oss8W#ts8W#trr2ruqu?TprVultrVqB~>
r;ZcsrVuisqu6Wrrr;oss8W#ts8W#trr2ruqu?TprVultrVqB~>
qu?Wq!<;utr;Q`srVucqs8W*!s8VusrVlitr;Zcs"9/?$s8E#rs*t~>
qu?Wq!<;utr;Q`srVucqs8W*!s8VusrVlitr;Zcs"9/?$s8E#rs*t~>
qu?Wq!<;utr;Q`srVucqs8W*!s8VusrVlitr;Zcs"9/?$s8E#rs*t~>
q>^Eo!WN/srr<&ts82los82lqrr<&rrrN3#s8E#ps*t~>
q>^Eo!WN/srr<&ts82los82lqrr<&rrrN3#s8E#ps*t~>
q>^Eo!WN/srr<&ts82los82lqrr<&rrrN3#s8E#ps*t~>
p&>!lr;Q`squ?Tpqu?Tpqu6Wrr;Q`sp&BO~>
p&>!lr;Q`squ?Tpqu?Tpqu6Wrr;Q`sp&BO~>
p&>!lr;Q`squ?Tpqu?Tpqu6Wrr;Q`sp&BO~>
p&>!lr;Qj!s8N)fs8E#urr<&srr<&ls*t~>
p&>!lr;Qj!s8N)fs8E#urr<&srr<&ls*t~>
p&>!lr;Qj!s8N)fs8E#urr<&srr<&ls*t~>
pAb-mrVlitrr2runc/Lerr2rurVultpA]X~>
pAb-mrVlitrr2runc/Lerr2rurVultpA]X~>
pAb-mrVlitrr2runc/Lerr2rurVultpA]X~>
pAY*mr;Q`srVlitoDe[frr2rur;Q`spA]X~>
pAY*mr;Q`srVlitoDe[frr2rur;Q`spA]X~>
pAY*mr;Q`srVlitoDe[frr2rur;Q`spA]X~>
p](6nr;Q`srVuisp&Fmhrr2rur;Zcsp]#a~>
p](6nr;Q`srVuisp&Fmhrr2rur;Zcsp]#a~>
p](6nr;Q`srVuisp&Fmhrr2rur;Zcsp]#a~>
p\t3nqu6Wrr;Z`rp]('irr2ruqu6Wrp]#a~>
p\t3nqu6Wrr;Z`rp]('irr2ruqu6Wrp]#a~>
p\t3nqu6Wrr;Z`rp]('irr2ruqu6Wrp]#a~>
p\t3nqu6Wrqu?Wqq#C0jrr2ruqu6Wrp]#a~>
p\t3nqu6Wrqu?Wqq#C0jrr2ruqu6Wrp]#a~>
p\t3nqu6Wrqu?Wqq#C0jrr2ruqu6Wrp]#a~>
p\t3nqu6WrqZ$Qqq#C3krVlitqu6Wrp]#a~>
p\t3nqu6WrqZ$Qqq#C3krVlitqu6Wrp]#a~>
p\t3nqu6WrqZ$Qqq#C3krVlitqu6Wrp]#a~>
p\t<qs8N)urr<&orr<&ps82lprr<&urrW9$rrDfnJ,~>
p\t<qs8N)urr<&orr<&ps82lprr<&urrW9$rrDfnJ,~>
p\t<qs8N)urr<&orr<&ps82lprr<&urrW9$rrDfnJ,~>
p](6n!WN0!rr<&orr<&ps8E#prr<&urrW9$!!)cnJ,~>
p](6n!WN0!rr<&orr<&ps8E#prr<&urrW9$!!)cnJ,~>
p](6n!WN0!rr<&orr<&ps8E#prr<&urrW9$!!)cnJ,~>
pAb*lrVlitkPkM^rVuispA]X~>
pAb*lrVlitkPkM^rVuispA]X~>
pAb*lrVlitkPkM^rVuispA]X~>
o`+pkrr2ruq#:<oqu6Wrq#:<orr;uuo`'F~>
o`+pkrr2ruq#:<oqu6Wrq#:<orr;uuo`'F~>
o`+pkrr2ruq#:<oqu6Wrq#:<orr;uuo`'F~>
oDegjrr2ruq>^6jq>UEprr;uuoDa=~>
oDegjrr2ruq>^6jq>UEprr;uuoDa=~>
oDegjrr2ruq>^6jq>UEprr;uuoDa=~>
o)J[hs8N'!q>^Hps8W*!q>UKrs8W&uo)F4~>
o)J[hs8N'!q>^Hps8W*!q>UKrs8W&uo)F4~>
o)J[hs8N'!q>^Hps8W*!q>UKrs8W&uo)F4~>
nGiIf!WN/rs8N*!s8N)qrrE-"rW)HfJ,~>
nGiIf!WN/rs8N*!s8N)qrrE-"rW)HfJ,~>
nGiIf!WN/rs8N*!s8N)qrrE-"rW)HfJ,~>
mf3:e!ri6#qu6`us8N)rs8N'#rr<&es*t~>
mf3:e!ri6#qu6`us8N)rs8N'#rr<&es*t~>
mf3:e!ri6#qu6`us8N)rs8N'#rr<&es*t~>
mJm%`p&FmhmJh\~>
mJm%`p&FmhmJh\~>
mJm%`p&FmhmJh\~>
kl:V^q>^Eokl6/~>
kl:V^q>^Eokl6/~>
kl:V^q>^Eokl6/~>
k5YG]qu?Zrk5Tr~>
k5YG]qu?Zrk5Tr~>
k5YG]qu?Zrk5Tr~>
jo5;\qu6Wrjo9i~>
jo5;\qu6Wrjo9i~>
jo5;\qu6Wrjo9i~>
jo>>\rVultjo9i~>
jo>>\rVultjo9i~>
jo>>\rVultjo9i~>
jT#)WjSs`~>
jT#)WjSs`~>
jT#)WjSs`~>
%%EndData
showpage
%%Trailer
end
%%EOF
